Workflow • coalitions
…
## # A tibble: 6 x 4
##   date       survey           draws             seats            
##   <date>     <list>           <list>            <list>           
## 1 2020-02-01 <tibble [7 × 3]> <tibble [10 × 7]> <tibble [60 × 3]>
## 2 2020-01-25 <tibble [7 × 3]> <tibble [10 × 7]> <tibble [60 × 3]>
## 3 2020-01-18 <tibble [7 × 3]> <tibble [10 × 7]> <tibble [60 × 3]>
## 4 2020-01-11 <tibble [7 × 3]> <tibble [10 × 7]> <tibble [60 × 3]>
## 5 2019-12-21 <tibble [7 × 3]> <tibble [10 × 7]> <tibble [60 × 3]>
## 6 2019-12-14 <tibble [7 × 3]> <tibble [10 × 7]> <tibble [60 × 3]>

## sim column indicates simulated elections (rows in draws column)
elong %>% slice(1) %>% select(seats) %>% unnest("seats")

## # A tibble: 60 x 3
##      sim party  seats
##    <int> <chr>  <int>
##  1     1 cdu      167
##  2     1 spd       86
##  3     1 greens   128
##  4     1 fdp       61
##  5     1 left      61
##  6     1 afd       95
##  7     2 cdu      164
##  8     2 spd       92
##  9     2 greens   134
## 10     2 fdp       58
## # … with 50 more rows
…
Wrapper

There is a wrapper function that directly returns probabilities:

elong <- collapse_parties(emnid)
elong %>% get_probabilities(., nsim=10) %>% unnest("probabilities")

## # A tibble: 36 x 3
##    date       coalition       probability
##    <date>     <chr>                 <dbl>
##  1 2020-02-01 cdu                       0
##  2 2020-02-01 cdu_fdp                   0
##  3 2020-02-01 cdu_fdp_greens          100
##  4 2020-02-01 spd                       0
##  5 2020-02-01 left_spd                  0
##  6 2020-02-01 greens_left_spd           0
##  7 2020-01-25 cdu                       0
##  8 2020-01-25 cdu_fdp                   0
##  9 2020-01-25 cdu_fdp_greens          100
## 10 2020-01-25 spd                       0
## # … with 26 more rows
…
